{
  "contest": {
    "id": "abc121",
    "title": "AtCoder Beginner Contest 121",
    "url": "https://atcoder.jp/contests/abc121"
  },
  "tasks": [
    {
      "id": "abc121_a",
      "label": "A",
      "title": "White Cells",
      "url": "https://atcoder.jp/contests/abc121/tasks/abc121_a",
      "directory": {
        "path": "a",
        "testdir": "test",
        "submit": "main.cpp"
      }
    },
    {
      "id": "abc121_b",
      "label": "B",
      "title": "Can you solve this?",
      "url": "https://atcoder.jp/contests/abc121/tasks/abc121_b",
      "directory": {
        "path": "b",
        "testdir": "test",
        "submit": "main.cpp"
      }
    },
    {
      "id": "abc121_c",
      "label": "C",
      "title": "Energy Drink Collector",
      "url": "https://atcoder.jp/contests/abc121/tasks/abc121_c"
    },
    {
      "id": "abc121_d",
      "label": "D",
      "title": "XOR World",
      "url": "https://atcoder.jp/contests/abc121/tasks/abc121_d"
    }
  ]
}